{
  "meta": {
    "total": 44
  },
  "links": {
    "pages": {
      "next": "https://api.digitalocean.com/v2/droplets/3623570/actions?page=2",
      "last": "https://api.digitalocean.com/v2/droplets/3623570/actions?page=3"
    }
  },
  "actions": [
    {
      "region": "nyc3",
      "resource_type": "droplet",
      "resource_id": 3623570,
      "completed_at": "2015-01-12T21:28:15Z",
      "started_at": "2015-01-12T21:28:11Z",
      "type": "power_on",
      "status": "completed",
      "id": 41117679
    },
    {
      "region": "nyc3",
      "resource_type": "droplet",
      "resource_id": 3623570,
      "completed_at": "2015-01-12T21:24:51Z",
      "started_at": "2015-01-12T21:24:33Z",
      "type": "shutdown",
      "status": "errored",
      "id": 41117510
    },
    {
      "region": "nyc3",
      "resource_type": "droplet",
      "resource_id": 3623570,
      "completed_at": "2015-01-12T21:24:25Z",
      "started_at": "2015-01-12T21:24:15Z",
      "type": "shutdown",
      "status": "completed",
      "id": 41117482
    },
    {
      "region": "nyc3",
      "resource_type": "droplet",
      "resource_id": 3623570,
      "completed_at": "2015-01-12T20:17:36Z",
      "started_at": "2015-01-12T20:14:38Z",
      "type": "snapshot",
      "status": "completed",
      "id": 41113369
    },
    {
      "region": "nyc3",
      "resource_type": "droplet",
      "resource_id": 3623570,
      "completed_at": "2015-01-12T20:14:24Z",
      "started_at": "2015-01-12T20:14:23Z",
      "type": "shutdown",
      "status": "completed",
      "id": 41113366
    },
    {
      "region": "nyc3",
      "resource_type": "droplet",
      "resource_id": 3623570,
      "completed_at": "2015-01-08T16:25:03Z",
      "started_at": "2015-01-08T16:21:31Z",
      "type": "snapshot",
      "status": "completed",
      "id": 40793606
    },
    {
      "region": "nyc3",
      "resource_type": "droplet",
      "resource_id": 3623570,
      "completed_at": "2015-01-08T16:21:20Z",
      "started_at": "2015-01-08T16:21:14Z",
      "type": "shutdown",
      "status": "completed",
      "id": 40793587
    },
    {
      "region": "nyc3",
      "resource_type": "droplet",
      "resource_id": 3623570,
      "completed_at": "2015-01-08T16:16:47Z",
      "started_at": "2015-01-08T16:13:00Z",
      "type": "snapshot",
      "status": "completed",
      "id": 40793226
    },
    {
      "region": "nyc3",
      "resource_type": "droplet",
      "resource_id": 3623570,
      "completed_at": "2015-01-08T16:12:29Z",
      "started_at": "2015-01-08T16:12:24Z",
      "type": "shutdown",
      "status": "completed",
      "id": 40793214
    },
    {
      "region": "nyc3",
      "resource_type": "droplet",
      "resource_id": 3623570,
      "completed_at": "2015-01-08T16:03:30Z",
      "started_at": "2015-01-08T15:58:42Z",
      "type": "snapshot",
      "status": "completed",
      "id": 40792566
    },
    {
      "region": "nyc3",
      "resource_type": "droplet",
      "resource_id": 3623570,
      "completed_at": "2015-01-08T15:58:34Z",
      "started_at": "2015-01-08T15:58:32Z",
      "type": "shutdown",
      "status": "completed",
      "id": 40792560
    },
    {
      "region": "nyc3",
      "resource_type": "droplet",
      "resource_id": 3623570,
      "completed_at": "2015-01-08T15:52:13Z",
      "started_at": "2015-01-08T15:48:14Z",
      "type": "snapshot",
      "status": "completed",
      "id": 40792058
    },
    {
      "region": "nyc3",
      "resource_type": "droplet",
      "resource_id": 3623570,
      "completed_at": "2015-01-08T15:48:05Z",
      "started_at": "2015-01-08T15:48:02Z",
      "type": "shutdown",
      "status": "completed",
      "id": 40792040
    },
    {
      "region": "nyc3",
      "resource_type": "droplet",
      "resource_id": 3623570,
      "completed_at": "2015-01-08T15:43:43Z",
      "started_at": "2015-01-08T15:40:04Z",
      "type": "snapshot",
      "status": "completed",
      "id": 40791609
    },
    {
      "region": "nyc3",
      "resource_type": "droplet",
      "resource_id": 3623570,
      "completed_at": "2015-01-08T15:39:53Z",
      "started_at": "2015-01-08T15:39:48Z",
      "type": "shutdown",
      "status": "completed",
      "id": 40791600
    },
    {
      "region": "nyc3",
      "resource_type": "droplet",
      "resource_id": 3623570,
      "completed_at": "2015-01-08T02:04:11Z",
      "started_at": "2015-01-08T02:00:48Z",
      "type": "snapshot",
      "status": "completed",
      "id": 40747089
    },
    {
      "region": "nyc3",
      "resource_type": "droplet",
      "resource_id": 3623570,
      "completed_at": "2015-01-08T02:00:37Z",
      "started_at": "2015-01-08T02:00:36Z",
      "type": "shutdown",
      "status": "completed",
      "id": 40747060
    },
    {
      "region": "nyc3",
      "resource_type": "droplet",
      "resource_id": 3623570,
      "completed_at": "2015-01-08T01:51:13Z",
      "started_at": "2015-01-08T01:47:13Z",
      "type": "snapshot",
      "status": "completed",
      "id": 40746394
    },
    {
      "region": "nyc3",
      "resource_type": "droplet",
      "resource_id": 3623570,
      "completed_at": "2015-01-08T01:47:07Z",
      "started_at": "2015-01-08T01:47:04Z",
      "type": "shutdown",
      "status": "completed",
      "id": 40746386
    },
    {
      "region": "nyc3",
      "resource_type": "droplet",
      "resource_id": 3623570,
      "completed_at": "2015-01-08T01:45:05Z",
      "started_at": "2015-01-08T01:40:01Z",
      "type": "snapshot",
      "status": "completed",
      "id": 40746108
    }
  ]
}
