{"meta":{"total":44},"links":{"pages":{"next":"https://api.digitalocean.com/v2/images?page=2","last":"https://api.digitalocean.com/v2/images?page=3"}},"images":[{"min_disk_size":20,"created_at":"2014-12-30T19:21:44Z","regions":["nyc3","nyc3"],"public":false,"slug":null,"distribution":"Ubuntu","name":"Oviedo-WordPress_1419967305","id":9554651},{"min_disk_size":20,"created_at":"2015-01-08T15:58:42Z","regions":["nyc3","nyc3"],"public":false,"slug":null,"distribution":"Ubuntu","name":"Oviedo-Wordpress Latest 2","id":9799267},{"min_disk_size":20,"created_at":"2015-01-08T16:13:00Z","regions":["nyc3","nyc3"],"public":false,"slug":null,"distribution":"Ubuntu","name":"Oviedo-Wordpress Latest 1","id":9799509},{"min_disk_size":20,"created_at":"2015-01-08T16:21:31Z","regions":["nyc3","nyc3"],"public":false,"slug":null,"distribution":"Ubuntu","name":"Oviedo-Wordpress Latest","id":9799666},{"min_disk_size":20,"created_at":"2015-01-10T01:24:12Z","regions":["nyc1","ams1","sfo1","nyc2","ams2","sgp1","lon1","nyc3","ams3","nyc3"],"public":true,"slug":"coreos-alpha","distribution":"CoreOS","name":"557.0.0 (alpha)","id":9836782},{"min_disk_size":20,"created_at":"2015-01-10T01:27:56Z","regions":["nyc1","ams1","sfo1","nyc2","ams2","sgp1","lon1","nyc3","ams3","nyc3"],"public":true,"slug":"coreos-beta","distribution":"CoreOS","name":"522.4.0 (beta)","id":9836871},{"min_disk_size":20,"created_at":"2015-01-10T01:29:40Z","regions":["nyc1","ams1","sfo1","nyc2","ams2","sgp1","lon1","nyc3","ams3","nyc3"],"public":true,"slug":"coreos-stable","distribution":"CoreOS","name":"522.4.0 (stable)","id":9836874},{"min_disk_size":20,"created_at":"2014-09-26T15:29:01Z","regions":["nyc1","ams1","sfo1","nyc2","ams2","sgp1","lon1","nyc3","ams3","nyc3"],"public":true,"slug":"fedora-20-x64","distribution":"Fedora","name":"20 x64","id":6370882},{"min_disk_size":20,"created_at":"2014-09-26T15:29:18Z","regions":["nyc1","ams1","sfo1","nyc2","ams2","sgp1","lon1","nyc3","ams3","nyc3"],"public":true,"slug":"fedora-20-x32","distribution":"Fedora","name":"20 x32","id":6370885},{"min_disk_size":20,"created_at":"2014-09-26T15:33:05Z","regions":["nyc1","ams1","sfo1","nyc2","ams2","sgp1","lon1","nyc3","ams3","nyc3"],"public":true,"slug":"fedora-19-x64","distribution":"Fedora","name":"19 x64","id":6370968},{"min_disk_size":20,"created_at":"2014-09-26T15:33:39Z","regions":["nyc1","ams1","sfo1","nyc2","ams2","sgp1","lon1","nyc3","ams3","nyc3"],"public":true,"slug":"fedora-19-x32","distribution":"Fedora","name":"19 x32","id":6370969},{"min_disk_size":20,"created_at":"2014-09-26T16:28:33Z","regions":["nyc1","ams1","sfo1","nyc2","ams2","sgp1","lon1","nyc3","ams3","nyc3"],"public":true,"slug":"centos-6-5-x32","distribution":"CentOS","name":"6.5 x32","id":6372105},{"min_disk_size":20,"created_at":"2014-09-26T16:28:43Z","regions":["nyc1","ams1","sfo1","nyc2","ams2","sgp1","lon1","nyc3","ams3","nyc3"],"public":true,"slug":"centos-6-5-x64","distribution":"CentOS","name":"6.5 x64","id":6372108},{"min_disk_size":20,"created_at":"2014-09-26T16:40:18Z","regions":["nyc1","ams1","sfo1","nyc2","ams2","sgp1","lon1","nyc3","ams3","nyc3"],"public":true,"slug":"centos-5-8-x64","distribution":"CentOS","name":"5.10 x64","id":6372321},{"min_disk_size":20,"created_at":"2014-09-26T16:45:29Z","regions":["nyc1","ams1","sfo1","nyc2","ams2","sgp1","lon1","nyc3","ams3","nyc3"],"public":true,"slug":"centos-5-8-x32","distribution":"CentOS","name":"5.10 x32","id":6372425},{"min_disk_size":20,"created_at":"2014-09-26T16:52:46Z","regions":["nyc1","ams1","sfo1","nyc2","ams2","sgp1","lon1","nyc3","ams3","nyc3"],"public":true,"slug":"debian-7-0-x64","distribution":"Debian","name":"7.0 x64","id":6372526},{"min_disk_size":20,"created_at":"2014-09-26T16:53:06Z","regions":["nyc1","ams1","sfo1","nyc2","ams2","sgp1","lon1","nyc3","ams3","nyc3"],"public":true,"slug":"debian-7-0-x32","distribution":"Debian","name":"7.0 x32","id":6372528},{"min_disk_size":20,"created_at":"2014-09-26T16:56:00Z","regions":["nyc1","ams1","sfo1","nyc2","ams2","sgp1","lon1","nyc3","ams3","nyc3"],"public":true,"slug":"debian-6-0-x64","distribution":"Debian","name":"6.0 x64","id":6372581},{"min_disk_size":20,"created_at":"2014-09-26T17:00:21Z","regions":["nyc1","ams1","sfo1","nyc2","ams2","sgp1","lon1","nyc3","ams3","nyc3"],"public":true,"slug":"debian-6-0-x32","distribution":"Debian","name":"6.0 x32","id":6372662},{"min_disk_size":20,"created_at":"2014-09-26T18:16:06Z","regions":["nyc1","ams1","sfo1","nyc2","ams2","sgp1","lon1","nyc3","ams3","nyc3"],"public":true,"slug":"ubuntu-10-04-x64","distribution":"Ubuntu","name":"10.04 x64","id":6374124},{"min_disk_size":20,"created_at":"2015-01-12T20:14:38Z","regions":["nyc3","nyc3"],"public":false,"slug":null,"name":"Oviedo-Wordpress Latest 1421093662","distribution":"Ubuntu","id":9914535}]}
